Toyota Analysis
…
Generate predicted and residuals value

Model A

modA_mlr_fit <- augment(modA_mlr)
modA_mlr_fit

## # A tibble: 1,436 x 12
##    price age_08_04    km fuel_type met_color catA  .fitted .resid    .hat .sigma
##    <dbl>     <dbl> <dbl> <chr>     <fct>     <fct>   <dbl>  <dbl>   <dbl>  <dbl>
##  1 13500        23 46986 Diesel    Yes       Pass~  17253. -3753. 0.0113   1508.
##  2 13750        23 72937 Diesel    Yes       Pass~  16811. -3061. 0.0103   1509.
##  3 13950        24 41711 Diesel    Yes       Pass~  17199. -3249. 0.0116   1509.
##  4 14950        26 48000 Diesel    No        Pass~  16690. -1740. 0.0128   1511.
##  5 13750        30 38500 Diesel    No        Pass~  16276. -2526. 0.0136   1510.
##  6 12950        32 61000 Diesel    No        Pass~  15605. -2655. 0.0119   1510.
##  7 16900        27 94612 Diesel    Yes       Pass~  15866.  1034. 0.0101   1511.
##  8 18600        30 75889 Diesel    Yes       Pass~  15754.  2846. 0.00989  1509.
##  9 21500        27 19700 Petrol    No        Pass~  18036.  3464. 0.0186   1508.
## 10 12950        23 71138 Diesel    No        Pass~  14219. -1269. 0.0181   1511.
## # ... with 1,426 more rows, and 2 more variables: .cooksd <dbl>,
## #   .std.resid <dbl>

Model B

modB_mlr_fit <- augment(modB_mlr)
modB_mlr_fit

## # A tibble: 1,436 x 12
##    price age_08_04    km catB      automatic    cc .fitted .resid    .hat .sigma
##    <dbl>     <dbl> <dbl> <chr>     <fct>     <dbl>   <dbl>  <dbl>   <dbl>  <dbl>
##  1 13500        23 46986 liquid f~ No         2000  16331. -2831. 0.00344  1639.
##  2 13750        23 72937 liquid f~ No         2000  15889. -2139. 0.00419  1640.
##  3 13950        24 41711 liquid f~ No         2000  16268. -2318. 0.00329  1640.
##  4 14950        26 48000 liquid f~ No         2000  15856.  -906. 0.00307  1641.
##  5 13750        30 38500 liquid f~ No         2000  15407. -1657. 0.00269  1640.
##  6 12950        32 61000 liquid f~ No         2000  14719. -1769. 0.00254  1640.
##  7 16900        27 94612 liquid f~ No         2000  14910.  1990. 0.00476  1640.
##  8 18600        30 75889 liquid f~ No         2000  14771.  3829. 0.00321  1638.
##  9 21500        27 19700 liquid f~ No         1800  16073.  5427. 0.00287  1634.
## 10 12950        23 71138 liquid f~ No         1900  15864. -2914. 0.00393  1639.
## # ... with 1,426 more rows, and 2 more variables: .cooksd <dbl>,
## #   .std.resid <dbl>

Model C

modC_mlr_fit <- augment(modC_mlr)
modC_mlr_fit

## # A tibble: 1,436 x 12
##    price age_08_04    km    hp abs   airco .fitted .resid    .hat .sigma .cooksd
##    <dbl>     <dbl> <dbl> <dbl> <fct> <fct>   <dbl>  <dbl>   <dbl>  <dbl>   <dbl>
##  1 13500        23 46986    90 Yes   No     15280. -1780. 0.00582  1549. 1.29e-3
##  2 13750        23 72937    90 Yes   Yes    15517. -1767. 0.00441  1549. 9.64e-4
##  3 13950        24 41711    90 Yes   No     15192. -1242. 0.00555  1550. 6.01e-4
##  4 14950        26 48000    90 Yes   No     14807.   143. 0.00520  1550. 7.47e-6
##  5 13750        30 38500    90 Yes   Yes    14873. -1123. 0.00328  1550. 2.89e-4
##  6 12950        32 61000    90 Yes   Yes    14285. -1335. 0.00290  1550. 3.61e-4
##  7 16900        27 94612    90 Yes   Yes    14633.  2267. 0.00479  1549. 1.72e-3
##  8 18600        30 75889    90 Yes   Yes    14407.  4193. 0.00341  1546. 4.19e-3
##  9 21500        27 19700   192 Yes   Yes    18876.  2624. 0.0281   1548. 1.42e-2
## 10 12950        23 71138    69 Yes   Yes    14859. -1909. 0.00775  1549. 1.99e-3
## # ... with 1,426 more rows, and 1 more variable: .std.resid <dbl>
…
